{
  "count": 1795,
  "total_pages": 180,
  "current_page": 1,
  "page_size": 10,
  "current_server_time": "2020-10-27 13:40:53",
  "data": [
    {
      "id": 752608,
      "online_class": {
        "id": 754134,
        "start_time": "2020-10-27 15:45:00",
        "allowed_buffer_time": "2020-10-27 13:38:00",
        "end_time": "2020-10-27 15:50:00",
        "acceptance_within": "2020-10-27 13:38:00",
        "subject": {
          "subject_name": "English"
        },
        "join_time": "2020-10-27 15:40:00",
        "created_by_label": "20190427717-Admin",
        "join_limit": 10,
        "groups": null,
        "title": "testing popup 1",
        "description": "",
        "attendee_limit": "300",
        "presenter_list": "zoom1445@orchids.edu.in",
        "tutor_list": "[\"parul.kapoor@orchids.edu.in\"]",
        "duration": "5",
        "required_acceptance": true,
        "is_delete": false,
        "doubt_class": false,
        "meeting_class": null,
        "asset_class": null,
        "is_optional": false,
        "is_assigned_to_parent": false,
        "is_assigned_to_all": false,
        "created_at": "2020-10-27T13:34:53.047309",
        "delete_at": "2020-10-27T13:34:53.047318",
        "updated_at": "2020-10-27T13:34:53.202562",
        "remarks": null,
        "guest_students_attendee_count": null,
        "quiz_meta_data": null,
        "is_home_work_uploaded": false,
        "created_by": 93069,
        "deleted_by": null,
        "updated_by": 93069,
        "quiz_question_paper": null,
        "acad_branch_mapping": [2731],
        "acad_session_branch": [167],
        "acad_section_mapping": [75530],
        "applicable_to_role": [13],
        "applicable_to_grade": []
      },
      "presenter": {
        "email": "zoom1445@orchids.edu.in"
      },
      "tutor_email": "parul.kapoor@orchids.edu.in",
      "meeting_id": "82415707437",
      "tutor_name": "Parul Kapoor",
      "attendee_student_count": 0,
      "absent_student_count": 2,
      "uuid": "PRtvKMWzSLeXThK7EUVf9w==",
      "presenter_url": "https://us02web.zoom.us/s/82415707437?zak=eyJ6bV9za20iOiJ6bV9vMm0iLCJhbGciOiJIUzI1NiIsInR5cCI6IkpXVCJ9.eyJhdWQiOiJjbGllbnQiLCJ1aWQiOiJrb2JiUy1ObVJhR2JfbW1YR3loNkdBIiwiaXNzIjoid2ViIiwic3R5IjoxMDAsIndjZCI6InVzMDIiLCJjbHQiOjAsInN0ayI6IjlHYWlzNThYdjZUVGJ2ZDZ6ZzlySnVLWmY4MjdtR1hwWFQ5b2xaRnNEckEuQmdVZ1lWWXpNREUzWWtOdmRFRndNVkpJVlVneWNrVkVXbmhQWVdoblVsZHpjakpBTWpNeFlXTTRObVEwTkRFd1ltRTFOamRoWmpZMFl6RmlaV0V5WTJVM05qWTNOakZrWVRZek1XWmxNR0ZsT0Rka09EZzFNbU14WkRZM1lUSmlOek00TWdBTU0wTkNRWFZ2YVZsVE0zTTlBQVIxY3pBeSIsImV4cCI6MTYwMzc5MzA5MiwiaWF0IjoxNjAzNzg1ODkyLCJhaWQiOiJ1ZnlPQWNURFFMcWhyUkNrREJBM2lBIiwiY2lkIjoiIn0.R-fMajqpOnfcE046dWXLSrpSPi9IQT2wX6c-RmCxgEk",
      "join_url": "https://us02web.zoom.us/j/82415707437?pwd=QnJUQ3VDSHhISjVZTmdXeTltUkNsZz09",
      "is_canceled": false,
      "created_at": "2020-10-27T13:34:53.156340",
      "updated_at": "2020-10-27T13:34:53.156354",
      "is_taken": false,
      "files_downloaded_status": false,
      "zoom_meeting_details": null,
      "zoom_online_class_type": "0",
      "joined_at": null,
      "tutor": 93069,
      "created_by": 93069,
      "updated_by": 93069
    }
  ]
}
